{"name":"testObtenerListaUsuarios","id":"empleados.ETests:testObtenerListaUsuarios","scenarioId":"empleados.ETests:testObtenerListaUsuarios","testCaseName":"empleados.ETests","methodName":"testObtenerListaUsuarios","testSteps":[{"number":1,"description":"GET https://reqres.in/api/users/?page\u003d2","duration":2,"startTime":"2025-04-12T00:30:04.282190900-05:00[America/Lima]","result":"SUCCESS","restQuery":{"method":"GET","path":"https://reqres.in/api/users/?page\u003d2","content":"","contentType":"null","requestHeaders":"Accept\u003d*/*","requestCookies":"","responseHeaders":"Date: Sat, 12 Apr 2025 05:30:02 GMT\r\nContent-Type: application/json; charset\u003dutf-8\r\nTransfer-Encoding: chunked\r\nConnection: keep-alive\r\nReport-To: {\"group\":\"heroku-nel\",\"max_age\":3600,\"endpoints\":[{\"url\":\"https://nel.heroku.com/reports?ts\u003d1744434447\u0026sid\u003dc4c9725f-1ab0-44d8-820f-430df2718e11\u0026s\u003dwTi25tQZE2ubLj5X1FN2yPL3UmGe55sVFIMYvRWB0EM%3D\"}]}\r\nReporting-Endpoints: heroku-nel\u003dhttps://nel.heroku.com/reports?ts\u003d1744434447\u0026sid\u003dc4c9725f-1ab0-44d8-820f-430df2718e11\u0026s\u003dwTi25tQZE2ubLj5X1FN2yPL3UmGe55sVFIMYvRWB0EM%3D\r\nNel: {\"report_to\":\"heroku-nel\",\"max_age\":3600,\"success_fraction\":0.005,\"failure_fraction\":0.05,\"response_headers\":[\"Via\"]}\r\nX-Powered-By: Express\r\nAccess-Control-Allow-Origin: *\r\nEtag: W/\"440-ZjsmMKR8P3usr2uJZbOCGCxC3Uw\"\r\nVia: 1.1 vegur\r\nCache-Control: max-age\u003d14400\r\nCF-Cache-Status: HIT\r\nAge: 1355\r\nVary: Accept-Encoding\r\nServer: cloudflare\r\nCF-RAY: 92f05452eedfd9bd-MIA\r\nContent-Encoding: gzip\r\nserver-timing: cfL4;desc\u003d\"?proto\u003dTCP\u0026rtt\u003d90852\u0026min_rtt\u003d71182\u0026rtt_var\u003d40743\u0026sent\u003d6\u0026recv\u003d6\u0026lost\u003d0\u0026retrans\u003d0\u0026sent_bytes\u003d3111\u0026recv_bytes\u003d777\u0026delivery_rate\u003d61532\u0026cwnd\u003d217\u0026unsent_bytes\u003d0\u0026cid\u003d6e0ee594fee7a5de\u0026ts\u003d170\u0026x\u003d0\"\r","responseCookies":"\r","responseBody":"{\n    \"page\": 2,\n    \"per_page\": 6,\n    \"total\": 12,\n    \"total_pages\": 2,\n    \"data\": [\n        {\n            \"id\": 7,\n            \"email\": \"michael.lawson@reqres.in\",\n            \"first_name\": \"Michael\",\n            \"last_name\": \"Lawson\",\n            \"avatar\": \"https://reqres.in/img/faces/7-image.jpg\"\n        },\n        {\n            \"id\": 8,\n            \"email\": \"lindsay.ferguson@reqres.in\",\n            \"first_name\": \"Lindsay\",\n            \"last_name\": \"Ferguson\",\n            \"avatar\": \"https://reqres.in/img/faces/8-image.jpg\"\n        },\n        {\n            \"id\": 9,\n            \"email\": \"tobias.funke@reqres.in\",\n            \"first_name\": \"Tobias\",\n            \"last_name\": \"Funke\",\n            \"avatar\": \"https://reqres.in/img/faces/9-image.jpg\"\n        },\n        {\n            \"id\": 10,\n            \"email\": \"byron.fields@reqres.in\",\n            \"first_name\": \"Byron\",\n            \"last_name\": \"Fields\",\n            \"avatar\": \"https://reqres.in/img/faces/10-image.jpg\"\n        },\n        {\n            \"id\": 11,\n            \"email\": \"george.edwards@reqres.in\",\n            \"first_name\": \"George\",\n            \"last_name\": \"Edwards\",\n            \"avatar\": \"https://reqres.in/img/faces/11-image.jpg\"\n        },\n        {\n            \"id\": 12,\n            \"email\": \"rachel.howell@reqres.in\",\n            \"first_name\": \"Rachel\",\n            \"last_name\": \"Howell\",\n            \"avatar\": \"https://reqres.in/img/faces/12-image.jpg\"\n        }\n    ],\n    \"support\": {\n        \"url\": \"https://contentcaddy.io?utm_source\u003dreqres\u0026utm_medium\u003djson\u0026utm_campaign\u003dreferral\",\n        \"text\": \"Tired of writing endless social media content? Let Content Caddy generate it for you.\"\n    }\n}","statusCode":200},"precondition":false,"level":0}],"userStory":{"id":"empleados.ETests","storyName":"ETests","displayName":"ETests","storyClassName":"empleados.ETests","path":"empleados.ETests","pathElements":[{"name":"empleados","description":"empleados"},{"name":"ETests","description":"ETests"}],"narrative":"","type":"feature"},"title":"Test obtener lista usuarios","tags":[{"name":"empleados/ETests","type":"feature","displayName":"E tests"},{"name":"empleados","type":"capability","displayName":"Empleados"}],"startTime":"2025-04-12T00:30:01.404437200-05:00[America/Lima]","endTime":"2025-04-12T00:30:04.309770700-05:00[America/Lima]","duration":2879,"projectKey":"","isManualTestingUpToDate":false,"manual":false,"testSource":"JUnit","order":0,"result":"SUCCESS"}